{
    "NIH": 1645,
    "Medical Research Council": 585,
    "Wellcome Trust": 555,
    "NHMRC": 156,
    "Cancer Research UK": 122,
    "EC ": 115,
    "RCUK": 85,
    "Chief Scientist Office": 82,
    "British Heart Foundation": 69,
    "Swiss National Science Foundation": 64,
    "Arthritis Research UK": 29,
    "World Health Organization": 29,
    "AKA": 27,
    "BBSRC": 15,
    "NWO": 12,
    "Austrian Science Fund FWF": 11,
    "ARC": 10,
    "Academy of Medical Sciences": 9,
    "NSF": 9,
    "Parkinson UK": 8,
    "Multiple Sclerosis Society": 7,
    "Telethon": 6,
    "Breast Cancer Now": 5,
    "Diabetes UK": 4,
    "MHWF": 2,
    "The Dunhill Medical Trust": 2,
    "Worldwide Cancer Research": 2,
    "NNSFCN": 2,
    "FCT": 2,
    "SGOV": 2,
    "SRC": 2,
    "CIHR": 1,
    "Action on Hearing Loss": 1,
    "NIHR": 1,
    "Prostate Cancer UK": 1,
    "BAMF": 1,
    "NCI": 1,
    "NIAGE": 1,
    "CONICYT": 1,
    "MZOS": 1,
    "DFG": 1,
    "NRF": 1
}