{
    "countries": {
        "France": {
            "United Kingdom": 9114,
            "Italy": 8581,
            "France": 9079,
            "Germany": 12073,
            "Sweden": 2502,
            "Greece": 2030,
            "Israel": 1048,
            "United States": 570,
            "Spain": 4919,
            "Netherlands": 5300,
            "Ireland": 964,
            "Poland": 801,
            "Philippines": 13,
            "Portugal": 944,
            "Turkey": 336,
            "Switzerland": 2318,
            "New Zealand": 34,
            "Hungary": 840,
            "Norway": 1022,
            "Serbia": 124,
            "Lithuania": 123,
            "Iceland": 206,
            "Romania": 438,
            "Luxembourg": 183,
            "Madagascar": 7,
            "Senegal": 44,
            "Ghana": 28,
            "Latvia": 126,
            "Slovakia": 134,
            "Uruguay": 13,
            "Slovenia": 350,
            "Singapore": 36,
            "South Africa": 152,
            "Morocco": 60,
            "Malta": 70,
            "Russia": 245,
            "Malawi": 8,
            "Kenya": 44,
            "Mexico": 44,
            "India": 99,
            "Malaysia": 16,
            "Georgia": 15,
            "Uganda": 22,
            "Rwanda": 6,
            "Japan": 51,
            "South Korea": 61,
            "Ukraine": 53,
            "Kosovo": 13,
            "Mozambique": 15,
            "Peru": 19,
            "Thailand": 5,
            "Saudi Arabia": 10,
            "Nigeria": 24,
            "Kazakhstan": 3,
            "Tanzania": 30,
            "Hong Kong": 3,
            "Indonesia": 10,
            "Taiwan": 10,
            "Vietnam": 4,
            "Jordan": 4,
            "Syria": 2,
            "Tunisia": 11,
            "Palestine": 11,
            "Greenland": 3,
            "Haiti": 5,
            "Sudan": 1,
            "Iran": 4,
            "Suriname": 1,
            "Mali": 6,
            "Zambia": 2,
            "Gabon": 36,
            "United Arab Emirates": 5,
            "Guatemala": 6,
            "Montenegro": 10,
            "Seychelles": 1,
            "Lebanon": 1,
            "The Gambia": 4,
            "Moldova": 8,
            "Sri Lanka": 3,
            "New Caledonia": 4
        },
        "Italy": {
            "United Kingdom": 3741,
            "Italy": 3143,
            "Netherlands": 2050,
            "Spain": 2053,
            "Sweden": 901,
            "Norway": 375,
            "United States": 166,
            "Philippines": 3,
            "Portugal": 476,
            "Turkey": 142,
            "Switzerland": 779,
            "New Zealand": 20,
            "Poland": 498,
            "Serbia": 85,
            "Slovenia": 259,
            "Romania": 205,
            "Senegal": 9,
            "Lithuania": 100,
            "Uruguay": 2,
            "Singapore": 6,
            "South Africa": 34,
            "Lebanon": 5,
            "Luxembourg": 43,
            "Malta": 33,
            "Japan": 29,
            "Tanzania": 3,
            "Latvia": 45,
            "Mexico": 13,
            "Russia": 55,
            "Tunisia": 11,
            "Morocco": 21,
            "Slovakia": 86,
            "Ukraine": 26,
            "Vietnam": 5,
            "Saudi Arabia": 2,
            "Nigeria": 5,
            "Rwanda": 1,
            "Moldova": 1,
            "Jordan": 5,
            "Syria": 2,
            "Madagascar": 1,
            "Montenegro": 2,
            "Kenya": 3,
            "Suriname": 1,
            "South Korea": 10,
            "Uganda": 15,
            "Sudan": 1,
            "Papua New Guinea": 3,
            "The Gambia": 1,
            "Peru": 2,
            "Kazakhstan": 2,
            "MK": 12,
            "Malaysia": 1,
            "Taiwan": 7,
            "Mozambique": 5,
            "Jamaica": 4
        },
        "Germany": {
            "Netherlands": 4730,
            "Germany": 9218,
            "Italy": 5869,
            "United Kingdom": 7236,
            "Sweden": 2177,
            "United States": 458,
            "Israel": 927,
            "Ireland": 1066,
            "Switzerland": 2580,
            "Spain": 5076,
            "Norway": 780,
            "Philippines": 3,
            "Portugal": 793,
            "Turkey": 283,
            "Hungary": 625,
            "Slovenia": 327,
            "Russia": 198,
            "Ukraine": 46,
            "Serbia": 83,
            "Greece": 1393,
            "Lithuania": 136,
            "Poland": 738,
            "Romania": 335,
            "Luxembourg": 131,
            "Slovakia": 166,
            "Iceland": 179,
            "India": 120,
            "Iran": 5,
            "South Africa": 67,
            "Thailand": 8,
            "Taiwan": 14,
            "Indonesia": 18,
            "Vietnam": 18,
            "Japan": 63,
            "Latvia": 65,
            "Malaysia": 10,
            "Syria": 6,
            "Ghana": 19,
            "Malta": 10,
            "Tunisia": 13,
            "Senegal": 14,
            "Montenegro": 1,
            "Peru": 8,
            "Singapore": 14,
            "Kazakhstan": 2,
            "Nepal": 6,
            "Nigeria": 7,
            "Uganda": 19,
            "Hong Kong": 16,
            "New Zealand": 22,
            "Tanzania": 28,
            "Moldova": 5,
            "Kenya": 30,
            "Madagascar": 8,
            "Sudan": 9,
            "Togo": 1,
            "Morocco": 19,
            "Mexico": 35,
            "Mali": 8,
            "Mozambique": 6,
            "Zambia": 8,
            "Niger": 2,
            "Greenland": 1,
            "United Arab Emirates": 5,
            "Uruguay": 2,
            "Jordan": 4,
            "South Korea": 58,
            "Monaco": 1,
            "Liechtenstein": 2,
            "Malawi": 2,
            "Guyana": 2,
            "Kosovo": 7,
            "Tajikistan": 1,
            "Namibia": 2,
            "Pakistan": 2
        },
        "Austria": {
            "France": 6972,
            "Austria": 2923,
            "Greece": 1454,
            "Portugal": 1074,
            "Spain": 6158,
            "Finland": 2162,
            "Czech Republic": 1324,
            "Belgium": 4248,
            "Israel": 876,
            "Germany": 12306,
            "Italy": 7091,
            "United Kingdom": 9308,
            "Switzerland": 2912,
            "Cyprus": 118,
            "Egypt": 46,
            "Denmark": 1803,
            "Sweden": 2480,
            "Ireland": 950,
            "Netherlands": 4850,
            "Luxembourg": 185,
            "Serbia": 309,
            "Turkey": 549,
            "Norway": 1181,
            "Estonia": 447,
            "United States": 642,
            "Iceland": 337,
            "China": 241,
            "Ecuador": 15,
            "Hungary": 866,
            "India": 48,
            "Poland": 1095,
            "Romania": 595,
            "Lithuania": 192,
            "Bulgaria": 387,
            "Slovenia": 573,
            "Bolivia": 15,
            "Brazil": 63,
            "Colombia": 8,
            "Slovakia": 356,
            "Croatia": 208,
            "Tanzania": 43,
            "Latvia": 117,
            "Chile": 43,
            "Russia": 230,
            "Canada": 337,
            "Malta": 38,
            "Malaysia": 41,
            "Philippines": 32,
            "Singapore": 24,
            "Indonesia": 51,
            "South Korea": 116,
            "Ukraine": 103,
            "Taiwan": 65,
            "Malawi": 5,
            "Namibia": 5,
            "Nigeria": 8,
            "Kenya": 60,
            "Former Yugoslav Republic of Macedonia": 57,
            "Hong Kong": 13,
            "Haiti": 8,
            "Senegal": 2,
            "Montenegro": 3,
            "Vietnam": 29,
            "Peru": 16,
            "South Africa": 37,
            "Morocco": 6,
            "Bosnia and Herzegovina": 7,
            "Pakistan": 7,
            "Iran": 1,
            "Cameroon": 17,
            "Belarus": 93,
            "Rwanda": 8,
            "Uganda": 30,
            "Georgia": 2,
            "Moldova": 2,
            "Kazakhstan": 1,
            "Botswana": 3,
            "Sudan": 3,
            "Mali": 16,
            "Maldives": 12,
            "Bangladesh": 24,
            "Sri Lanka": 31,
            "Niger": 12,
            "New Zealand": 10,
            "Japan": 59,
            "Mexico": 16,
            "Costa Rica": 1,
            "Ghana": 7,
            "Guyana": 6,
            "Ethiopia": 15,
            "Mozambique": 19,
            "C\u00f4te d\u2019Ivoire": 19,
            "Faeroe Islands": 25
        },
        "Australia": {
            "Austria": 482,
            "Italy": 643,
            "France": 777,
            "United Kingdom": 875,
            "Belgium": 405,
            "Israel": 29,
            "China": 117,
            "Greece": 74,
            "Ireland": 139,
            "Poland": 15,
            "Brazil": 73,
            "Czech Republic": 90,
            "Germany": 764,
            "Denmark": 259,
            "Spain": 394,
            "Netherlands": 652,
            "New Zealand": 157,
            "United States": 440,
            "Philippines": 12,
            "Australia": 349,
            "Sweden": 140,
            "Finland": 126,
            "Mexico": 1,
            "Serbia": 45,
            "Burkina Faso": 3,
            "Kenya": 10,
            "Switzerland": 401,
            "Singapore": 28,
            "Canada": 180,
            "Romania": 7,
            "Norway": 80,
            "Slovenia": 27,
            "South Korea": 49,
            "Malta": 16,
            "Hungary": 93,
            "Turkey": 39,
            "Bulgaria": 44,
            "Sri Lanka": 8,
            "Japan": 25,
            "Mauritius": 7,
            "Indonesia": 2,
            "Malaysia": 18,
            "Thailand": 4,
            "Taiwan": 22,
            "Vietnam": 4,
            "Lithuania": 57,
            "Estonia": 37,
            "Cameroon": 64,
            "South Africa": 77,
            "Russia": 5,
            "Luxembourg": 2,
            "Portugal": 9,
            "Costa Rica": 3,
            "Honduras": 4,
            "Iceland": 2,
            "Bangladesh": 28,
            "Guatemala": 1,
            "Croatia": 13,
            "India": 52,
            "Faeroe Islands": 18,
            "Iran": 5,
            "Chile": 14,
            "Tanzania": 23,
            "Peru": 1,
            "Slovakia": 22,
            "Cyprus": 33,
            "Ethiopia": 10,
            "Egypt": 5,
            "Morocco": 1,
            "Kosovo": 3,
            "Hong Kong": 12,
            "Ghana": 3
        },
        "Greece": {
            "Greece": 465,
            "Portugal": 224,
            "Spain": 724,
            "Italy": 1392,
            "United Kingdom": 1081,
            "United States": 55,
            "Ireland": 156,
            "Poland": 161,
            "Netherlands": 533,
            "Sweden": 287,
            "Hungary": 110,
            "India": 8,
            "Serbia": 71,
            "Switzerland": 251,
            "Slovenia": 101,
            "Israel": 169,
            "Lithuania": 33,
            "Norway": 131,
            "Romania": 84,
            "Turkey": 87,
            "Morocco": 22,
            "Tunisia": 28,
            "Luxembourg": 30,
            "Malta": 46,
            "Japan": 5,
            "Tanzania": 6,
            "Kenya": 6,
            "Ukraine": 10,
            "Latvia": 11,
            "Slovakia": 41,
            "Iceland": 19,
            "Senegal": 2,
            "Nigeria": 1,
            "Mexico": 3,
            "South Africa": 4,
            "Taiwan": 10,
            "Russia": 18,
            "Philippines": 2,
            "Maldives": 3,
            "United Arab Emirates": 5,
            "Jordan": 6,
            "South Korea": 2,
            "Moldova": 3,
            "Sudan": 1,
            "New Zealand": 3,
            "Kazakhstan": 8,
            "Vietnam": 2,
            "Kyrgyzstan": 4,
            "Mali": 1,
            "Thailand": 1
        },
        "Finland": {
            "Greece": 533,
            "Portugal": 343,
            "Spain": 1175,
            "Switzerland": 441,
            "Germany": 2663,
            "Finland": 1454,
            "Luxembourg": 48,
            "Sweden": 1004,
            "Poland": 384,
            "Malaysia": 4,
            "Vietnam": 8,
            "France": 2982,
            "Italy": 2521,
            "Netherlands": 1554,
            "United Kingdom": 2984,
            "Norway": 378,
            "Ireland": 278,
            "Slovenia": 162,
            "United States": 166,
            "Hungary": 314,
            "Slovakia": 50,
            "Lithuania": 112,
            "Israel": 265,
            "India": 44,
            "Uganda": 12,
            "Serbia": 64,
            "Romania": 100,
            "Tanzania": 11,
            "Mexico": 15,
            "Iceland": 56,
            "Latvia": 34,
            "Malta": 14,
            "Turkey": 74,
            "Madagascar": 11,
            "Ghana": 16,
            "Kenya": 3,
            "Singapore": 2,
            "Peru": 10,
            "Mozambique": 10,
            "Russia": 69,
            "Ukraine": 22,
            "Taiwan": 7,
            "Tunisia": 6,
            "Morocco": 6,
            "South Africa": 27,
            "Uzbekistan": 5,
            "Lebanon": 1,
            "South Korea": 10,
            "Japan": 6,
            "Georgia": 3,
            "New Zealand": 10,
            "Pakistan": 20,
            "Greenland": 5,
            "Nigeria": 5
        },
        "Czech Republic": {
            "Finland": 579,
            "France": 2090,
            "Germany": 2502,
            "Denmark": 617,
            "Spain": 1298,
            "Ireland": 211,
            "Italy": 1415,
            "Netherlands": 1210,
            "New Zealand": 20,
            "Poland": 420,
            "United Kingdom": 1478,
            "United States": 96,
            "Philippines": 3,
            "Czech Republic": 418,
            "Malaysia": 6,
            "Vietnam": 11,
            "Estonia": 116,
            "Portugal": 241,
            "Slovenia": 124,
            "Kazakhstan": 22,
            "Sweden": 517,
            "Switzerland": 370,
            "Slovakia": 68,
            "Israel": 192,
            "Greece": 411,
            "Norway": 276,
            "Russia": 67,
            "Hungary": 220,
            "Turkey": 68,
            "Lithuania": 90,
            "Latvia": 77,
            "India": 2,
            "Romania": 130,
            "Iceland": 42,
            "Ukraine": 53,
            "Tunisia": 1,
            "Serbia": 82,
            "South Korea": 3,
            "Luxembourg": 20,
            "Georgia": 7,
            "Senegal": 11,
            "Uzbekistan": 2,
            "Moldova": 3,
            "South Africa": 17,
            "Morocco": 5,
            "Mexico": 5,
            "Indonesia": 1,
            "Singapore": 3,
            "Thailand": 2,
            "Taiwan": 1,
            "Japan": 42,
            "Malta": 6,
            "Former Yugoslav Republic of Macedonia": 9,
            "Niger": 1,
            "Faeroe Islands": 1,
            "Mozambique": 3,
            "Mali": 6,
            "New Caledonia": 1,
            "Greenland": 11,
            "Nepal": 7
        },
        "Belgium": {
            "Czech Republic": 1346,
            "Israel": 819,
            "Greece": 2090,
            "Belgium": 5758,
            "France": 10317,
            "Italy": 7464,
            "Switzerland": 3670,
            "Cyprus": 241,
            "Germany": 12783,
            "Egypt": 61,
            "United Kingdom": 11693,
            "Netherlands": 7259,
            "China": 347,
            "Estonia": 334,
            "Brazil": 392,
            "Denmark": 3319,
            "Spain": 6638,
            "Ireland": 1218,
            "New Zealand": 32,
            "Poland": 1223,
            "United States": 1194,
            "Philippines": 18,
            "Sweden": 2810,
            "Serbia": 256,
            "Lithuania": 196,
            "Norway": 1478,
            "Finland": 2392,
            "Slovenia": 608,
            "Romania": 642,
            "Hungary": 843,
            "South Africa": 155,
            "Luxembourg": 268,
            "Cameroon": 29,
            "Ghana": 12,
            "Mali": 14,
            "Sudan": 4,
            "Ethiopia": 13,
            "Latvia": 190,
            "Uganda": 24,
            "India": 154,
            "Slovakia": 332,
            "Croatia": 325,
            "Turkey": 490,
            "Senegal": 75,
            "Portugal": 1083,
            "Canada": 192,
            "Bulgaria": 621,
            "Malta": 38,
            "C\u00f4te d\u2019Ivoire": 26,
            "Vietnam": 22,
            "Morocco": 94,
            "Russia": 316,
            "Ukraine": 218,
            "Iceland": 199,
            "Japan": 312,
            "Benin": 20,
            "Democratic Republic of the Congo": 9,
            "Singapore": 26,
            "Bolivia": 4,
            "Ecuador": 40,
            "Nicaragua": 2,
            "South Korea": 274,
            "Tunisia": 64,
            "Georgia": 46,
            "Chile": 68,
            "Burkina Faso": 12,
            "Saudi Arabia": 11,
            "Kenya": 70,
            "Mozambique": 15,
            "Colombia": 54,
            "Malawi": 2,
            "Namibia": 1,
            "Nigeria": 18,
            "Mexico": 106,
            "Moldova": 7,
            "Faeroe Islands": 33,
            "Madagascar": 11,
            "Greenland": 18,
            "Hong Kong": 7,
            "Pakistan": 4,
            "Cape Verde": 13,
            "Cambodia": 36,
            "Indonesia": 7,
            "Thailand": 6,
            "Gabon": 4,
            "Tanzania": 23,
            "Zambia": 3,
            "Bosnia and Herzegovina": 6,
            "Niger": 4,
            "Nepal": 5,
            "Montenegro": 2,
            "Seychelles": 1,
            "Lebanon": 5,
            "United Arab Emirates": 9,
            "Monaco": 57,
            "Former Yugoslav Republic of Macedonia": 37,
            "Taiwan": 38,
            "Uruguay": 4,
            "Peru": 12,
            "Costa Rica": 14,
            "Liechtenstein": 2,
            "Botswana": 1,
            "Mauritania": 8,
            "Cuba": 57,
            "French Polynesia": 28,
            "New Caledonia": 34
        },
        "Portugal": {
            "Spain": 411,
            "United Kingdom": 387,
            "Portugal": 179,
            "Turkey": 55,
            "Switzerland": 63,
            "Slovenia": 35,
            "Sweden": 124,
            "Senegal": 3,
            "Serbia": 17,
            "Romania": 51,
            "South Africa": 2,
            "Slovakia": 15,
            "Uruguay": 3,
            "Ukraine": 2,
            "Russia": 3,
            "Thailand": 1,
            "United States": 8,
            "Tunisia": 2,
            "Uganda": 1,
            "Taiwan": 3
        },
        "Cyprus": {
            "Switzerland": 86,
            "Germany": 362,
            "Egypt": 27,
            "France": 263,
            "Greece": 272,
            "Italy": 324,
            "United Kingdom": 281,
            "Cyprus": 102,
            "Netherlands": 112,
            "Poland": 27,
            "Sweden": 92,
            "Spain": 332,
            "Norway": 39,
            "Denmark": 77,
            "Israel": 67,
            "Turkey": 40,
            "Tunisia": 6,
            "Malta": 18,
            "United States": 36,
            "Czech Republic": 53,
            "Russia": 18,
            "Ukraine": 1,
            "Finland": 37,
            "Romania": 62,
            "Ireland": 44,
            "Portugal": 46,
            "Slovenia": 58,
            "Hungary": 21,
            "Iceland": 24,
            "Lithuania": 15,
            "Serbia": 13,
            "Estonia": 38,
            "Latvia": 2,
            "Morocco": 6,
            "Jordan": 5,
            "Slovakia": 4,
            "Taiwan": 10
        },
        "Egypt": {
            "Germany": 67,
            "France": 124,
            "Greece": 29,
            "Italy": 57,
            "United Kingdom": 27,
            "Spain": 9,
            "Mali": 2,
            "Switzerland": 21,
            "South Africa": 5,
            "Madagascar": 2,
            "Senegal": 3,
            "Israel": 10,
            "Lebanon": 2,
            "Tunisia": 53,
            "Turkey": 13,
            "Portugal": 6,
            "Morocco": 45,
            "Malta": 8,
            "Syria": 3,
            "Ghana": 5,
            "Rwanda": 1,
            "Jordan": 19,
            "Palestine": 1,
            "Norway": 1,
            "Vietnam": 1,
            "India": 1,
            "Peru": 1,
            "United States": 5,
            "Egypt": 38,
            "Nigeria": 9,
            "Mexico": 9,
            "Netherlands": 13,
            "Russia": 2,
            "Slovenia": 1,
            "Ukraine": 1,
            "Romania": 6,
            "Mauritania": 7
        },
        "United Kingdom": {
            "United Kingdom": 2160,
            "United States": 185,
            "Uruguay": 1,
            "Vietnam": 6,
            "Uzbekistan": 4,
            "XK": 2
        },
        "Sweden": {
            "United Kingdom": 1036,
            "United States": 35,
            "Sweden": 337,
            "Switzerland": 226,
            "Uganda": 2,
            "Turkey": 29,
            "Ukraine": 7,
            "Tanzania": 4,
            "Tunisia": 1,
            "United Arab Emirates": 1,
            "Tajikistan": 1,
            "Vietnam": 1
        },
        "Denmark": {
            "Sweden": 1637,
            "Germany": 5126,
            "Ireland": 563,
            "United Kingdom": 5118,
            "Italy": 3294,
            "Spain": 3137,
            "France": 4610,
            "Netherlands": 2605,
            "New Zealand": 29,
            "Poland": 533,
            "United States": 328,
            "Philippines": 23,
            "Israel": 350,
            "Switzerland": 1115,
            "Slovenia": 182,
            "Russia": 176,
            "Finland": 1277,
            "Norway": 773,
            "Denmark": 1491,
            "Estonia": 281,
            "Hungary": 411,
            "Greece": 862,
            "South Africa": 48,
            "Latvia": 35,
            "Portugal": 553,
            "Slovakia": 135,
            "Iceland": 130,
            "Singapore": 24,
            "Lithuania": 117,
            "Romania": 188,
            "India": 40,
            "Jordan": 11,
            "Turkey": 117,
            "Malaysia": 22,
            "Ghana": 18,
            "Egypt": 9,
            "Morocco": 25,
            "Kenya": 57,
            "Senegal": 18,
            "Serbia": 31,
            "Japan": 16,
            "Georgia": 4,
            "Taiwan": 22,
            "Ukraine": 27,
            "Madagascar": 1,
            "Greenland": 20,
            "Faeroe Islands": 24,
            "Uganda": 27,
            "Sudan": 22,
            "Nigeria": 24,
            "Malta": 20,
            "South Korea": 4,
            "Mali": 1,
            "Mozambique": 1,
            "Tanzania": 17,
            "Zambia": 1,
            "Maldives": 1,
            "Uzbekistan": 5,
            "Indonesia": 8,
            "Vietnam": 6,
            "Mexico": 4,
            "Guinea-Bissau": 1,
            "Thailand": 11,
            "Luxembourg": 33,
            "Tunisia": 3,
            "Peru": 3,
            "Laos": 1,
            "Lebanon": 1,
            "Gabon": 8,
            "Niger": 1,
            "Monaco": 4,
            "Namibia": 2,
            "Hong Kong": 1
        },
        "Spain": {
            "Sweden": 413,
            "United Kingdom": 1298,
            "Spain": 2068,
            "Switzerland": 366,
            "United States": 53,
            "Turkey": 85,
            "Tunisia": 3,
            "Vietnam": 3,
            "Ukraine": 14,
            "Tanzania": 1,
            "Uruguay": 2,
            "Uganda": 1,
            "Taiwan": 7
        },
        "Ireland": {
            "Spain": 468,
            "United Kingdom": 1017,
            "Sweden": 221,
            "Italy": 629,
            "Poland": 115,
            "Netherlands": 429,
            "New Zealand": 5,
            "United States": 28,
            "Philippines": 1,
            "Russia": 7,
            "Switzerland": 158,
            "Israel": 94,
            "Norway": 146,
            "Slovakia": 51,
            "Ireland": 264,
            "Romania": 40,
            "Portugal": 112,
            "Morocco": 3,
            "Serbia": 32,
            "Lithuania": 27,
            "Turkey": 42,
            "Luxembourg": 10,
            "Slovenia": 48,
            "Latvia": 12,
            "Tunisia": 13,
            "South Africa": 26,
            "Zambia": 2,
            "Malawi": 9,
            "Japan": 3,
            "Sudan": 1,
            "Namibia": 1,
            "Ukraine": 10,
            "Rwanda": 7,
            "Kenya": 13,
            "Uganda": 3,
            "Singapore": 4,
            "Jordan": 5,
            "Syria": 7,
            "Palestine": 7,
            "Peru": 5,
            "Lebanon": 4,
            "Taiwan": 2,
            "Malta": 9,
            "Uruguay": 4,
            "Tanzania": 1,
            "South Korea": 4
        },
        "Netherlands": {
            "Netherlands": 1361,
            "United Kingdom": 2600,
            "New Zealand": 23,
            "Poland": 280,
            "United States": 117,
            "Philippines": 6,
            "Sweden": 651,
            "Spain": 1044,
            "Russia": 34,
            "Slovenia": 87,
            "Switzerland": 513,
            "Portugal": 302,
            "Romania": 109,
            "Norway": 322,
            "Sudan": 2,
            "Serbia": 40,
            "Turkey": 112,
            "Slovakia": 39,
            "Senegal": 5,
            "Thailand": 7,
            "Taiwan": 4,
            "Nicaragua": 2,
            "South Africa": 22,
            "Tunisia": 10,
            "Ukraine": 9,
            "Rwanda": 1,
            "Tanzania": 9,
            "Uganda": 6,
            "Singapore": 3,
            "Pakistan": 1,
            "Vietnam": 5,
            "Venezuela": 1,
            "Nigeria": 2,
            "Sri Lanka": 8,
            "Uruguay": 1,
            "United Arab Emirates": 1,
            "South Korea": 9,
            "Peru": 9,
            "Niger": 1,
            "Zimbabwe": 1
        },
        "Luxembourg": {
            "Sweden": 23,
            "Luxembourg": 1,
            "Switzerland": 11,
            "Malta": 3,
            "Poland": 9,
            "Portugal": 16,
            "Romania": 7,
            "Serbia": 6,
            "United Kingdom": 70,
            "Spain": 38,
            "Netherlands": 46,
            "Norway": 8,
            "Slovenia": 6,
            "Turkey": 2,
            "United States": 6,
            "New Zealand": 2,
            "Slovakia": 1
        },
        "Argentina": {
            "Australia": 29,
            "China": 182,
            "Spain": 200,
            "Chile": 16,
            "France": 217,
            "Greece": 3,
            "Croatia": 2,
            "Czech Republic": 39,
            "Mexico": 40,
            "Serbia": 10,
            "Germany": 318,
            "United Kingdom": 265,
            "Kazakhstan": 1,
            "Austria": 165,
            "Belgium": 166,
            "Slovakia": 1,
            "Sweden": 26,
            "Switzerland": 60,
            "Denmark": 55,
            "Brazil": 175,
            "Argentina": 54,
            "Portugal": 204,
            "Italy": 348,
            "India": 23,
            "Israel": 14,
            "Poland": 28,
            "Uruguay": 23,
            "Colombia": 25,
            "Ireland": 9,
            "South Africa": 37,
            "Suriname": 5,
            "Russia": 24,
            "Cape Verde": 5,
            "Latvia": 5,
            "Norway": 1,
            "Slovenia": 6,
            "Estonia": 3,
            "Bulgaria": 11,
            "Netherlands": 123,
            "United States": 21,
            "Egypt": 9,
            "New Zealand": 9,
            "Kenya": 36,
            "Romania": 32,
            "Finland": 10,
            "Niger": 18,
            "Ethiopia": 8,
            "Ukraine": 17,
            "Costa Rica": 5,
            "Canada": 12,
            "Morocco": 1,
            "Nigeria": 4,
            "Taiwan": 9
        },
        "China": {
            "Germany": 338,
            "Estonia": 21,
            "France": 317,
            "Italy": 201,
            "Philippines": 18,
            "United Kingdom": 446,
            "Portugal": 51,
            "Turkey": 35,
            "Switzerland": 140,
            "Czech Republic": 49,
            "Denmark": 165,
            "Spain": 210,
            "Ireland": 35,
            "Netherlands": 212,
            "New Zealand": 19,
            "Poland": 73,
            "United States": 32,
            "Ecuador": 2,
            "Greece": 24,
            "Hungary": 30,
            "India": 71,
            "Serbia": 6,
            "Iran": 10,
            "Slovenia": 25,
            "South Africa": 42,
            "Sweden": 75,
            "China": 255,
            "Finland": 89,
            "Oman": 8,
            "Vietnam": 41,
            "Russia": 34,
            "Norway": 28,
            "Croatia": 25,
            "Japan": 12,
            "South Korea": 14,
            "Slovakia": 21,
            "Kenya": 4,
            "Egypt": 8,
            "Peru": 9,
            "Morocco": 8,
            "Hong Kong": 5,
            "Indonesia": 1,
            "Thailand": 9,
            "Mexico": 2,
            "Malaysia": 2,
            "Ukraine": 16,
            "Faeroe Islands": 7,
            "Israel": 3,
            "Ghana": 3,
            "Mali": 3,
            "Niger": 1,
            "Taiwan": 2,
            "Luxembourg": 5,
            "Cyprus": 15,
            "Uruguay": 5,
            "New Caledonia": 2
        },
        "Estonia": {
            "France": 380,
            "Germany": 530,
            "Italy": 428,
            "Philippines": 1,
            "United Kingdom": 451,
            "Portugal": 70,
            "Turkey": 35,
            "Switzerland": 62,
            "Israel": 31,
            "Spain": 368,
            "Netherlands": 339,
            "Finland": 217,
            "Iceland": 35,
            "Norway": 135,
            "United States": 22,
            "Slovakia": 30,
            "Greece": 106,
            "Latvia": 38,
            "Romania": 79,
            "Estonia": 54,
            "Sweden": 159,
            "Hungary": 82,
            "Ireland": 66,
            "Poland": 56,
            "Luxembourg": 4,
            "Lithuania": 38,
            "Slovenia": 44,
            "Russia": 37,
            "Ukraine": 3,
            "Serbia": 2,
            "Malta": 32,
            "Hong Kong": 1,
            "Singapore": 3,
            "Malaysia": 3,
            "India": 2,
            "Moldova": 1,
            "Georgia": 4,
            "Former Yugoslav Republic of Macedonia": 9,
            "Liechtenstein": 7
        },
        "Philippines": {
            "United Kingdom": 16,
            "Portugal": 2,
            "Turkey": 1,
            "Switzerland": 1,
            "Poland": 2,
            "United States": 3,
            "Slovenia": 2,
            "Philippines": 2,
            "Singapore": 4,
            "Thailand": 5,
            "Taiwan": 4,
            "Vietnam": 6,
            "Spain": 1
        },
        "Switzerland": {
            "Turkey": 15,
            "United Kingdom": 685,
            "Switzerland": 375,
            "United States": 65,
            "Uganda": 3,
            "Tanzania": 7,
            "Thailand": 2,
            "Ukraine": 4,
            "Taiwan": 2,
            "Tunisia": 2,
            "United Arab Emirates": 1
        },
        "Hungary": {
            "Switzerland": 82,
            "Hungary": 95,
            "United Kingdom": 387,
            "Spain": 236,
            "Netherlands": 279,
            "Sweden": 118,
            "Italy": 490,
            "Romania": 52,
            "Luxembourg": 11,
            "India": 11,
            "Serbia": 11,
            "Poland": 107,
            "Norway": 64,
            "Slovenia": 52,
            "Portugal": 51,
            "Ireland": 97,
            "Tanzania": 2,
            "Lithuania": 44,
            "Malta": 3,
            "Turkey": 54,
            "Latvia": 29,
            "Philippines": 1,
            "Israel": 65,
            "Slovakia": 22,
            "Ukraine": 2,
            "Japan": 2,
            "Iceland": 4,
            "United States": 20,
            "Russia": 5,
            "Taiwan": 2,
            "Moldova": 2,
            "Montenegro": 1,
            "United Arab Emirates": 2,
            "Thailand": 1,
            "South Africa": 9,
            "Vietnam": 1
        },
        "Brazil": {
            "China": 93,
            "Czech Republic": 10,
            "Germany": 166,
            "Denmark": 77,
            "Spain": 104,
            "France": 228,
            "Ireland": 35,
            "Italy": 210,
            "Netherlands": 137,
            "New Zealand": 7,
            "Poland": 18,
            "United Kingdom": 156,
            "United States": 106,
            "Philippines": 1,
            "Brazil": 154,
            "Sweden": 89,
            "Colombia": 40,
            "South Africa": 73,
            "South Korea": 7,
            "Portugal": 54,
            "Finland": 25,
            "Hungary": 11,
            "Mexico": 32,
            "Chile": 5,
            "Slovenia": 4,
            "Ecuador": 2,
            "Malawi": 2,
            "Namibia": 2,
            "Nigeria": 2,
            "Costa Rica": 10,
            "Israel": 2,
            "Slovakia": 14,
            "Norway": 17,
            "Japan": 31,
            "Russia": 18,
            "Cuba": 21,
            "Ghana": 16,
            "Venezuela": 12,
            "El Salvador": 1,
            "Switzerland": 78,
            "Guatemala": 11,
            "Madagascar": 2,
            "India": 40,
            "Greece": 19,
            "Canada": 30,
            "Estonia": 3,
            "Lebanon": 4,
            "Morocco": 5,
            "Tunisia": 12,
            "Peru": 12,
            "Romania": 6,
            "Turkey": 2,
            "Kenya": 3,
            "Tanzania": 1,
            "Lithuania": 13,
            "Luxembourg": 13,
            "Bulgaria": 5,
            "Gabon": 9,
            "French Polynesia": 1,
            "Cambodia": 14,
            "Senegal": 16,
            "New Caledonia": 11
        },
        "New Zealand": {
            "Poland": 2,
            "United Kingdom": 46,
            "United States": 9,
            "Philippines": 1,
            "Spain": 4,
            "South Africa": 3,
            "Sweden": 4,
            "Tunisia": 1,
            "New Zealand": 1,
            "Switzerland": 1,
            "Serbia": 1,
            "Romania": 3,
            "Russia": 2
        },
        "Poland": {
            "United Kingdom": 478,
            "United States": 11,
            "Switzerland": 70,
            "Poland": 98,
            "Sweden": 135,
            "Spain": 201,
            "Slovenia": 58,
            "Portugal": 98,
            "Romania": 63,
            "Serbia": 11,
            "Turkey": 28,
            "Ukraine": 17,
            "Singapore": 2,
            "Slovakia": 25,
            "Russia": 14,
            "South Africa": 1,
            "Taiwan": 1
        },
        "Serbia": {
            "United Kingdom": 59,
            "Spain": 45,
            "Serbia": 47,
            "Turkey": 12,
            "Switzerland": 13,
            "Slovenia": 9,
            "South Korea": 2,
            "Sweden": 14,
            "Slovakia": 6,
            "United States": 4,
            "Ukraine": 2
        },
        "Malaysia": {
            "Vietnam": 6,
            "Sweden": 5,
            "United Kingdom": 20,
            "Switzerland": 10,
            "Turkey": 1,
            "South Africa": 1,
            "Morocco": 2,
            "Sri Lanka": 2,
            "Thailand": 8,
            "Malaysia": 1,
            "Philippines": 4,
            "Singapore": 6,
            "Taiwan": 2,
            "Spain": 2
        },
        "Vietnam": {
            "Vietnam": 2
        },
        "Lithuania": {
            "United Kingdom": 85,
            "Romania": 22,
            "Spain": 29,
            "Poland": 32,
            "Switzerland": 19,
            "Lithuania": 21,
            "Netherlands": 76,
            "Norway": 20,
            "Ukraine": 3,
            "Sweden": 26,
            "Slovenia": 26,
            "Portugal": 19,
            "Turkey": 11,
            "Nicaragua": 2,
            "Slovakia": 9,
            "Serbia": 6,
            "Luxembourg": 2,
            "Russia": 5,
            "United States": 5,
            "Taiwan": 1
        },
        "Norway": {
            "Sweden": 202,
            "United Kingdom": 392,
            "Norway": 164,
            "Turkey": 24,
            "Switzerland": 69,
            "United States": 19,
            "Spain": 257,
            "Slovenia": 36,
            "Poland": 62,
            "Russia": 19,
            "Portugal": 85,
            "Rwanda": 2,
            "Romania": 24,
            "Tunisia": 2,
            "Serbia": 17,
            "South Korea": 5,
            "Senegal": 1,
            "Slovakia": 22,
            "Saudi Arabia": 1,
            "South Africa": 11,
            "Vietnam": 3,
            "Uzbekistan": 2,
            "Ukraine": 8,
            "United Arab Emirates": 2,
            "Uganda": 2,
            "Tanzania": 1
        },
        "Canada": {
            "Sweden": 112,
            "Germany": 301,
            "United Kingdom": 269,
            "Finland": 94,
            "Kenya": 6,
            "India": 17,
            "Lithuania": 6,
            "Norway": 127,
            "Uganda": 6,
            "Spain": 118,
            "Czech Republic": 37,
            "Canada": 185,
            "Russia": 15,
            "Estonia": 6,
            "Netherlands": 221,
            "Iceland": 49,
            "France": 311,
            "Latvia": 17,
            "Croatia": 27,
            "Poland": 54,
            "Denmark": 90,
            "Hungary": 27,
            "Italy": 227,
            "Switzerland": 11,
            "Israel": 10,
            "Greenland": 3,
            "Ukraine": 3,
            "Ireland": 25,
            "United States": 144,
            "Cyprus": 4,
            "Tunisia": 8,
            "Egypt": 1,
            "New Zealand": 23,
            "China": 24,
            "Japan": 17,
            "Slovenia": 9,
            "Portugal": 46,
            "Romania": 4,
            "Greece": 23,
            "Morocco": 9,
            "Georgia": 3,
            "Colombia": 11,
            "Uruguay": 8,
            "South Africa": 9,
            "Luxembourg": 11,
            "Central African Republic": 1,
            "Mozambique": 8,
            "Ethiopia": 1,
            "Chile": 2,
            "Faeroe Islands": 4,
            "Vietnam": 2,
            "Slovakia": 4
        },
        "Israel": {
            "Sweden": 110,
            "Israel": 153,
            "Italy": 614,
            "United Kingdom": 527,
            "Netherlands": 345,
            "Spain": 297,
            "Serbia": 8,
            "Portugal": 101,
            "Norway": 65,
            "Switzerland": 114,
            "Lithuania": 10,
            "Morocco": 1,
            "Lebanon": 2,
            "Tunisia": 4,
            "Turkey": 37,
            "Slovenia": 32,
            "Poland": 58,
            "Japan": 10,
            "Malaysia": 1,
            "Romania": 36,
            "United States": 35,
            "Luxembourg": 11,
            "Ukraine": 7,
            "Kosovo": 2,
            "Taiwan": 4,
            "Russia": 10,
            "Latvia": 12,
            "Senegal": 1,
            "South Korea": 2,
            "Malta": 7,
            "Uruguay": 2,
            "Jordan": 5,
            "New Zealand": 2,
            "Slovakia": 14,
            "Peru": 2,
            "Thailand": 1,
            "Tanzania": 3
        },
        "Russia": {
            "Sweden": 30,
            "Russia": 98,
            "Spain": 33,
            "United Kingdom": 78,
            "Senegal": 2,
            "Slovenia": 12,
            "Switzerland": 15,
            "Ukraine": 18,
            "Turkey": 20,
            "South Africa": 11,
            "Uzbekistan": 1,
            "United States": 2,
            "Tunisia": 1,
            "South Korea": 2,
            "Slovakia": 2,
            "Thailand": 1
        },
        "Slovenia": {
            "Slovenia": 38,
            "United Kingdom": 184,
            "Spain": 109,
            "Switzerland": 33,
            "South Africa": 1,
            "Sweden": 62,
            "United States": 9,
            "Turkey": 15,
            "Ukraine": 2
        },
        "Bulgaria": {
            "Germany": 519,
            "Italy": 495,
            "Israel": 84,
            "Switzerland": 168,
            "Denmark": 169,
            "Bulgaria": 236,
            "France": 535,
            "Greece": 211,
            "Luxembourg": 9,
            "Malta": 60,
            "Poland": 214,
            "Portugal": 133,
            "Romania": 87,
            "Serbia": 62,
            "United Kingdom": 494,
            "Spain": 407,
            "Russia": 60,
            "Netherlands": 311,
            "Lithuania": 21,
            "Ukraine": 74,
            "Hungary": 43,
            "Slovakia": 15,
            "Czech Republic": 143,
            "Croatia": 70,
            "Estonia": 91,
            "Turkey": 141,
            "Latvia": 22,
            "Finland": 134,
            "Cyprus": 78,
            "Sweden": 129,
            "Ireland": 59,
            "Former Yugoslav Republic of Macedonia": 19,
            "Iceland": 12,
            "South Africa": 9,
            "Slovenia": 37,
            "Norway": 81,
            "Tunisia": 22,
            "Georgia": 27,
            "Morocco": 29,
            "United States": 25,
            "Kenya": 1,
            "Philippines": 13,
            "Montenegro": 3,
            "Moldova": 8,
            "China": 6,
            "India": 11,
            "MK": 36,
            "Kosovo": 8,
            "Tajikistan": 8,
            "Taiwan": 25
        },
        "Ukraine": {
            "United Kingdom": 27,
            "Ukraine": 11
        },
        "Chile": {
            "Spain": 50,
            "France": 24,
            "Greece": 5,
            "Croatia": 1,
            "Denmark": 147,
            "Germany": 69,
            "Israel": 9,
            "China": 19,
            "Russia": 4,
            "United Kingdom": 46,
            "Portugal": 1,
            "Chile": 7,
            "Italy": 24,
            "Sweden": 20,
            "Netherlands": 32,
            "Romania": 5,
            "Hungary": 8,
            "Colombia": 3,
            "Mexico": 2,
            "Finland": 8,
            "Turkey": 3,
            "India": 7,
            "Poland": 7,
            "Lebanon": 1,
            "Norway": 11,
            "Indonesia": 1,
            "Costa Rica": 20,
            "South Africa": 7,
            "Tanzania": 6,
            "Ghana": 6,
            "Tunisia": 6,
            "Switzerland": 16,
            "New Zealand": 16,
            "Czech Republic": 16,
            "Faeroe Islands": 1,
            "Iceland": 1,
            "Vietnam": 1
        },
        "Croatia": {
            "France": 386,
            "Greece": 40,
            "Iceland": 19,
            "United States": 30,
            "Netherlands": 242,
            "Germany": 408,
            "Sweden": 98,
            "United Kingdom": 392,
            "Italy": 434,
            "Morocco": 6,
            "Israel": 58,
            "Lebanon": 4,
            "Tunisia": 14,
            "Turkey": 64,
            "Egypt": 3,
            "Norway": 110,
            "Spain": 236,
            "Portugal": 117,
            "Czech Republic": 56,
            "Estonia": 38,
            "Latvia": 54,
            "Romania": 57,
            "Switzerland": 69,
            "Denmark": 139,
            "Ireland": 77,
            "Finland": 56,
            "Poland": 74,
            "Former Yugoslav Republic of Macedonia": 22,
            "Serbia": 41,
            "Croatia": 50,
            "Lithuania": 47,
            "Malta": 4,
            "Luxembourg": 11,
            "Hungary": 61,
            "Slovakia": 32,
            "Slovenia": 103,
            "Russia": 11,
            "Cyprus": 15,
            "Faeroe Islands": 10,
            "Montenegro": 11,
            "Japan": 6,
            "Georgia": 14,
            "Greenland": 2,
            "Ukraine": 9
        },
        "Romania": {
            "Spain": 112,
            "Switzerland": 33,
            "United Kingdom": 131,
            "Serbia": 16,
            "Ukraine": 13,
            "Sweden": 53,
            "Romania": 30,
            "Turkey": 25,
            "Slovakia": 27,
            "Slovenia": 23,
            "Tunisia": 2,
            "Russia": 8,
            "South Africa": 1,
            "United States": 8
        },
        "Iceland": {
            "Italy": 127,
            "Ireland": 30,
            "Norway": 33,
            "Switzerland": 41,
            "Sweden": 47,
            "Netherlands": 122,
            "United Kingdom": 108,
            "United States": 9,
            "Spain": 43,
            "Israel": 6,
            "Japan": 5,
            "Iceland": 13,
            "Portugal": 12,
            "Serbia": 3,
            "Latvia": 9,
            "Slovenia": 8,
            "Luxembourg": 7,
            "Turkey": 10,
            "Romania": 13,
            "Poland": 13,
            "Lithuania": 7,
            "Russia": 18,
            "Kazakhstan": 2,
            "Uzbekistan": 1,
            "Ukraine": 3,
            "Slovakia": 1,
            "Vietnam": 1
        },
        "Mali": {
            "Switzerland": 9,
            "Morocco": 7,
            "Sudan": 1,
            "Mali": 8,
            "Portugal": 1,
            "Mozambique": 6,
            "Nigeria": 6,
            "Uganda": 9,
            "South Africa": 12,
            "Tanzania": 6,
            "Zambia": 6,
            "Spain": 1,
            "Sweden": 1,
            "United Kingdom": 7,
            "Norway": 2,
            "Netherlands": 14,
            "Senegal": 4
        },
        "Cameroon": {
            "Switzerland": 10,
            "Ghana": 11,
            "Egypt": 8,
            "Portugal": 6,
            "United Kingdom": 47,
            "Senegal": 25,
            "Italy": 50,
            "France": 34,
            "Cape Verde": 16,
            "Turkey": 17,
            "Nigeria": 17,
            "Netherlands": 21,
            "Greece": 9,
            "Denmark": 27,
            "Germany": 69,
            "Norway": 3,
            "South Africa": 10,
            "Spain": 2,
            "Sweden": 7,
            "Cameroon": 2,
            "Togo": 3,
            "Uganda": 6,
            "Zambia": 2,
            "Tanzania": 1,
            "Colombia": 6,
            "Peru": 9,
            "Indonesia": 1,
            "Vietnam": 1,
            "Ethiopia": 4,
            "Luxembourg": 6
        },
        "Ethiopia": {
            "Netherlands": 8,
            "Sudan": 1,
            "Tanzania": 1,
            "Spain": 3,
            "India": 6,
            "Nepal": 4,
            "Nigeria": 7,
            "South Africa": 8,
            "Uganda": 4,
            "Germany": 6,
            "France": 5,
            "Switzerland": 2,
            "United Kingdom": 3,
            "Portugal": 2,
            "Thailand": 2,
            "Kenya": 6,
            "Indonesia": 5,
            "Ethiopia": 4,
            "Malawi": 2,
            "Mozambique": 1,
            "Zambia": 5,
            "Sweden": 1
        },
        "Benin": {
            "France": 34,
            "South Africa": 5,
            "Egypt": 4,
            "Madagascar": 2,
            "Senegal": 4,
            "Cameroon": 2,
            "Portugal": 2,
            "United Kingdom": 19,
            "Italy": 24,
            "Ghana": 3,
            "Benin": 8,
            "Democratic Republic of the Congo": 9,
            "Germany": 8,
            "Burkina Faso": 19,
            "Switzerland": 2,
            "Netherlands": 5,
            "Mali": 6,
            "Morocco": 3,
            "India": 6,
            "Kenya": 6,
            "United States": 6,
            "Nigeria": 6,
            "Denmark": 4,
            "Tanzania": 16,
            "Sweden": 4,
            "Uganda": 5,
            "Spain": 5
        },
        "Senegal": {
            "United Kingdom": 8,
            "Turkey": 3,
            "Spain": 15,
            "Ukraine": 1,
            "The Gambia": 1,
            "Sweden": 1,
            "Serbia": 1,
            "Switzerland": 3,
            "South Korea": 1
        },
        "Ecuador": {
            "Ecuador": 1,
            "Greece": 2,
            "Hungary": 2,
            "India": 2,
            "Italy": 12,
            "Serbia": 2,
            "United Kingdom": 6,
            "Lithuania": 1,
            "Netherlands": 3,
            "Nicaragua": 2,
            "Malawi": 2,
            "Namibia": 2,
            "Nigeria": 2,
            "Peru": 1,
            "France": 2,
            "Sri Lanka": 2,
            "Spain": 2,
            "Switzerland": 2,
            "Germany": 2
        },
        "India": {
            "Italy": 54,
            "Serbia": 5,
            "United Kingdom": 77,
            "South Africa": 22,
            "Kenya": 3,
            "Lithuania": 2,
            "Norway": 5,
            "Uganda": 2,
            "Spain": 28,
            "Sweden": 11,
            "Oman": 3,
            "Vietnam": 7,
            "India": 165,
            "Tanzania": 6,
            "Jordan": 4,
            "Latvia": 2,
            "Switzerland": 21,
            "Israel": 8,
            "Mozambique": 1,
            "Nepal": 8,
            "Nigeria": 6,
            "Russia": 6,
            "Netherlands": 19,
            "Portugal": 3,
            "Thailand": 1,
            "Peru": 1,
            "United States": 10,
            "Morocco": 1,
            "Pakistan": 3,
            "Senegal": 3,
            "Japan": 6,
            "Philippines": 3,
            "Madagascar": 1,
            "Mexico": 3,
            "Tunisia": 1,
            "Poland": 2,
            "Indonesia": 1,
            "Sudan": 4,
            "Mali": 1,
            "Papua New Guinea": 1,
            "Turkey": 1,
            "Uruguay": 6,
            "Ireland": 2,
            "Sri Lanka": 6
        },
        "Latvia": {
            "Spain": 42,
            "Turkey": 17,
            "Netherlands": 23,
            "Sweden": 42,
            "Serbia": 3,
            "Russia": 5,
            "Lithuania": 15,
            "Poland": 23,
            "Portugal": 16,
            "Romania": 19,
            "Slovakia": 12,
            "Slovenia": 13,
            "United Kingdom": 58,
            "Luxembourg": 6,
            "Norway": 11,
            "Switzerland": 6,
            "Ukraine": 9,
            "Vietnam": 1,
            "Latvia": 57,
            "United States": 1
        },
        "Belarus": {
            "Ireland": 15,
            "Slovakia": 2,
            "France": 145,
            "Germany": 339,
            "Spain": 283,
            "Luxembourg": 1,
            "Czech Republic": 20,
            "Poland": 27,
            "Ukraine": 20,
            "Moldova": 21,
            "Italy": 565,
            "Hungary": 21,
            "Russia": 30,
            "Georgia": 11,
            "Kazakhstan": 8,
            "Uzbekistan": 1,
            "Denmark": 23,
            "Belgium": 70,
            "Greece": 34,
            "Netherlands": 55,
            "Romania": 6,
            "Sweden": 149,
            "Switzerland": 50,
            "United Kingdom": 501,
            "Estonia": 43,
            "Finland": 114,
            "Israel": 7,
            "Portugal": 7,
            "Turkey": 7,
            "Bulgaria": 49,
            "Canada": 3,
            "Croatia": 11
        },
        "Slovakia": {
            "Slovakia": 21,
            "Sweden": 23,
            "Spain": 36,
            "Slovenia": 16,
            "Switzerland": 4,
            "United Kingdom": 93,
            "Turkey": 12,
            "Vietnam": 1,
            "Ukraine": 9
        },
        "Turkey": {
            "United Kingdom": 101,
            "Turkey": 23,
            "Ukraine": 13,
            "Vietnam": 3,
            "United States": 3,
            "United Arab Emirates": 1
        },
        "South Africa": {
            "Switzerland": 13,
            "Uganda": 11,
            "United Kingdom": 44,
            "Sweden": 9,
            "Tanzania": 15,
            "Vietnam": 1,
            "South Korea": 4,
            "Spain": 10,
            "South Africa": 25,
            "United States": 8,
            "Zambia": 2,
            "Uruguay": 1
        },
        "Uganda": {
            "Uganda": 3,
            "United Kingdom": 5
        },
        "Bolivia": {
            "United Kingdom": 4,
            "Germany": 8,
            "Brazil": 6,
            "Colombia": 7,
            "Netherlands": 3,
            "Ecuador": 15,
            "Lithuania": 1,
            "Nicaragua": 2,
            "Peru": 15,
            "Bolivia": 8,
            "Denmark": 11,
            "Spain": 10,
            "France": 1
        },
        "Colombia": {
            "Netherlands": 6,
            "France": 25,
            "Mexico": 88,
            "Spain": 21,
            "Germany": 37,
            "Ireland": 1,
            "United Kingdom": 8,
            "Portugal": 2,
            "Ethiopia": 2,
            "India": 5,
            "Nigeria": 2,
            "Latvia": 1,
            "Czech Republic": 6,
            "Denmark": 9,
            "Italy": 8,
            "Ecuador": 2,
            "Guatemala": 1,
            "Indonesia": 8,
            "Vietnam": 6,
            "Switzerland": 7,
            "Egypt": 2,
            "Hungary": 3,
            "Morocco": 3,
            "Colombia": 3,
            "United States": 8
        },
        "Uruguay": {
            "Uruguay": 1
        },
        "Burkina Faso": {
            "Greece": 23,
            "France": 51,
            "United Kingdom": 108,
            "Malawi": 10,
            "Kenya": 15,
            "Italy": 95,
            "Cameroon": 26,
            "Tanzania": 16,
            "Ethiopia": 15,
            "Mali": 10,
            "Morocco": 1,
            "South Africa": 2,
            "Germany": 31,
            "Portugal": 5,
            "Senegal": 4,
            "Burkina Faso": 10,
            "Sweden": 18,
            "Uganda": 19,
            "Netherlands": 33,
            "India": 1,
            "United States": 3,
            "Nigeria": 5,
            "Mozambique": 10,
            "Denmark": 2,
            "Ghana": 7,
            "Guinea-Bissau": 1,
            "Central African Republic": 4,
            "Zambia": 4,
            "Switzerland": 4,
            "Canada": 4,
            "Czech Republic": 6
        },
        "Algeria": {
            "Croatia": 16,
            "Ireland": 10,
            "Egypt": 74,
            "Tunisia": 39,
            "Spain": 35,
            "Lebanon": 27,
            "Italy": 41,
            "Algeria": 10,
            "Slovenia": 32,
            "Israel": 20,
            "Cyprus": 22,
            "Turkey": 44,
            "Malta": 35,
            "France": 41,
            "Greece": 21,
            "Morocco": 35,
            "Portugal": 4,
            "Jordan": 3,
            "Syria": 3,
            "United Kingdom": 3,
            "Palestine": 3,
            "Bulgaria": 17,
            "Germany": 2,
            "Russia": 1,
            "Belgium": 12,
            "Ukraine": 17,
            "Switzerland": 17,
            "Romania": 17
        },
        "Lebanon": {
            "Tunisia": 2,
            "Turkey": 1,
            "Spain": 2,
            "Morocco": 1,
            "Poland": 1,
            "United Kingdom": 1,
            "Sweden": 1,
            "Ukraine": 1,
            "Switzerland": 1,
            "Portugal": 1
        },
        "Tunisia": {
            "Turkey": 3,
            "United Kingdom": 4,
            "Uruguay": 1
        },
        "Singapore": {
            "United Kingdom": 19,
            "United States": 3,
            "Spain": 2,
            "Sri Lanka": 2,
            "Slovenia": 1,
            "Singapore": 1,
            "Thailand": 4,
            "Taiwan": 2,
            "Vietnam": 4,
            "South Africa": 1,
            "Switzerland": 1,
            "Slovakia": 1
        },
        "United States": {
            "United States": 60
        },
        "Malawi": {
            "South Africa": 9,
            "Norway": 11,
            "Tanzania": 8,
            "United Kingdom": 11,
            "Zambia": 2,
            "Netherlands": 4,
            "Namibia": 3,
            "Nigeria": 1,
            "Sudan": 1,
            "Sweden": 2,
            "Malawi": 8,
            "Mozambique": 3,
            "Portugal": 1,
            "Senegal": 1,
            "Switzerland": 6,
            "United States": 6,
            "Taiwan": 6
        },
        "Tanzania": {
            "United Kingdom": 12,
            "Tanzania": 6,
            "Uganda": 5,
            "Zambia": 2,
            "United States": 3
        },
        "Oman": {
            "Sweden": 1,
            "Vietnam": 2,
            "South Africa": 2
        },
        "Malta": {
            "Tunisia": 4,
            "Poland": 3,
            "Portugal": 8,
            "Romania": 4,
            "Serbia": 1,
            "United Kingdom": 26,
            "Netherlands": 5,
            "Norway": 4,
            "Spain": 16,
            "Montenegro": 1,
            "Turkey": 11,
            "Morocco": 1,
            "Syria": 2,
            "Slovakia": 1,
            "Malta": 7,
            "Sweden": 3
        },
        "Morocco": {
            "Portugal": 4,
            "Netherlands": 7,
            "Sweden": 2,
            "Norway": 3,
            "Ukraine": 6,
            "Russia": 2,
            "South Africa": 4,
            "Senegal": 5,
            "Turkey": 3,
            "Tunisia": 1,
            "Peru": 1,
            "United States": 1,
            "Mozambique": 1,
            "Nigeria": 1,
            "Uganda": 2,
            "Tanzania": 1,
            "Zambia": 1,
            "United Kingdom": 3,
            "Spain": 6,
            "Poland": 1,
            "Uruguay": 1,
            "Switzerland": 1
        },
        "C\u00f4te d\u2019Ivoire": {
            "France": 9,
            "Germany": 2,
            "South Africa": 3,
            "Finland": 5,
            "United Kingdom": 28,
            "United States": 14,
            "Mozambique": 5
        },
        "Indonesia": {
            "Netherlands": 11,
            "Vietnam": 9,
            "Taiwan": 3,
            "Malaysia": 11,
            "Philippines": 8,
            "Singapore": 2,
            "Thailand": 4,
            "United Kingdom": 2,
            "United States": 7,
            "Mali": 1,
            "Switzerland": 1,
            "Kenya": 1,
            "Nigeria": 2,
            "Laos": 1,
            "Peru": 1,
            "Italy": 1,
            "South Africa": 3,
            "Turkey": 1
        },
        "Taiwan": {
            "Thailand": 3,
            "United Kingdom": 5,
            "Vietnam": 6,
            "United States": 2,
            "Taiwan": 3,
            "Turkey": 1
        },
        "Japan": {
            "United Kingdom": 21,
            "Netherlands": 11,
            "South Korea": 1,
            "United States": 12,
            "Spain": 3,
            "Poland": 2,
            "Singapore": 2,
            "Mauritius": 5,
            "Sri Lanka": 1,
            "Sweden": 4,
            "Switzerland": 4,
            "Slovenia": 2,
            "Japan": 7,
            "Turkey": 1,
            "Portugal": 1,
            "Norway": 2,
            "Russia": 1
        },
        "Kenya": {
            "United Kingdom": 23,
            "Malaysia": 7,
            "Morocco": 2,
            "Portugal": 5,
            "Uganda": 8,
            "Rwanda": 10,
            "Norway": 6,
            "South Africa": 11,
            "Nigeria": 1,
            "Sweden": 3,
            "Switzerland": 4,
            "Mozambique": 5,
            "Spain": 14,
            "Turkey": 1,
            "Russia": 2,
            "Kenya": 18,
            "Singapore": 5,
            "Mexico": 7,
            "United States": 1,
            "Mali": 1,
            "Malawi": 2,
            "Senegal": 1,
            "Tanzania": 16
        },
        "Costa Rica": {
            "France": 24,
            "Spain": 7,
            "Finland": 6,
            "Italy": 5,
            "Mexico": 22,
            "Costa Rica": 3,
            "Switzerland": 3,
            "Germany": 4,
            "Jamaica": 3,
            "Honduras": 3,
            "Israel": 1,
            "Portugal": 1,
            "New Zealand": 1,
            "Netherlands": 1,
            "Ethiopia": 2,
            "Cuba": 5,
            "Kenya": 2
        },
        "Mexico": {
            "Mexico": 60,
            "Spain": 24,
            "Netherlands": 13,
            "Turkey": 3,
            "Portugal": 1,
            "Peru": 6,
            "Nigeria": 1,
            "Norway": 2,
            "United Kingdom": 1,
            "South Africa": 1,
            "South Korea": 5
        },
        "Albania": {
            "Greece": 29,
            "Bulgaria": 87,
            "Croatia": 40,
            "Former Yugoslav Republic of Macedonia": 4,
            "Romania": 40,
            "Serbia": 4,
            "Turkey": 80,
            "Italy": 80,
            "Bosnia and Herzegovina": 6,
            "Belgium": 144,
            "South Africa": 8,
            "Slovenia": 8,
            "United States": 8,
            "Israel": 8,
            "Germany": 240,
            "United Kingdom": 48,
            "Sweden": 82,
            "Malta": 30,
            "Montenegro": 32,
            "France": 175,
            "Ukraine": 60,
            "Russia": 30,
            "Cyprus": 7,
            "Egypt": 7,
            "Canada": 14,
            "Tunisia": 7,
            "Austria": 31,
            "Spain": 58,
            "Finland": 45,
            "Slovakia": 28,
            "Netherlands": 49,
            "Czech Republic": 10,
            "Hungary": 20,
            "Switzerland": 7,
            "Estonia": 16,
            "Portugal": 27,
            "Norway": 18,
            "Armenia": 2,
            "Azerbaijan": 2,
            "Georgia": 2,
            "Moldova": 2,
            "Algeria": 15,
            "Albania": 17,
            "Morocco": 1,
            "Australia": 17,
            "Denmark": 14,
            "Kosovo": 1
        },
        "Bosnia and Herzegovina": {
            "Bulgaria": 5,
            "Croatia": 16,
            "Former Yugoslav Republic of Macedonia": 10,
            "Italy": 4,
            "Montenegro": 21,
            "Switzerland": 16,
            "Netherlands": 14,
            "Germany": 14,
            "Bosnia and Herzegovina": 5,
            "Georgia": 2,
            "Hungary": 2,
            "Moldova": 2,
            "Romania": 8,
            "Serbia": 11,
            "Turkey": 2,
            "Russia": 6,
            "Ukraine": 6,
            "United Kingdom": 5
        },
        "Former Yugoslav Republic of Macedonia": {
            "Romania": 30,
            "Serbia": 17,
            "Turkey": 6,
            "Italy": 101,
            "Ireland": 21,
            "Spain": 115,
            "Poland": 12,
            "Germany": 71,
            "United Kingdom": 21,
            "Slovakia": 7,
            "Slovenia": 8,
            "United States": 7,
            "France": 38,
            "Vietnam": 16,
            "Latvia": 4,
            "Netherlands": 33,
            "Montenegro": 4,
            "Georgia": 7,
            "Hungary": 16,
            "Moldova": 1,
            "Portugal": 24,
            "Iceland": 9,
            "Greece": 28,
            "Malta": 2,
            "Switzerland": 1,
            "South Africa": 20,
            "Israel": 5,
            "Sweden": 8
        },
        "Syria": {
            "Turkey": 4,
            "Tunisia": 1,
            "United Kingdom": 1
        },
        "Georgia": {
            "Spain": 6,
            "Israel": 6,
            "Turkey": 6,
            "Ukraine": 4,
            "United Kingdom": 14,
            "Greece": 3,
            "Portugal": 3,
            "Senegal": 1,
            "Hungary": 2,
            "Kazakhstan": 5,
            "Uzbekistan": 2,
            "Russia": 11,
            "Moldova": 5,
            "Montenegro": 1,
            "Romania": 4,
            "Tunisia": 9,
            "Morocco": 7,
            "Italy": 9,
            "Germany": 7,
            "Ireland": 3,
            "Lithuania": 1,
            "Latvia": 1,
            "Netherlands": 1,
            "Norway": 1,
            "Poland": 2,
            "Sweden": 1,
            "Slovenia": 1,
            "Slovakia": 2,
            "Iceland": 2
        },
        "Jordan": {
            "Spain": 2,
            "Latvia": 3,
            "Sweden": 1,
            "Morocco": 1,
            "Malta": 1,
            "Syria": 1,
            "Tunisia": 9,
            "Turkey": 1,
            "United Kingdom": 1,
            "Jordan": 1,
            "United States": 3,
            "Netherlands": 1,
            "South Africa": 1,
            "Palestine": 3,
            "Lebanon": 5,
            "Switzerland": 5
        },
        "Ghana": {
            "Malaysia": 3,
            "South Africa": 16,
            "Madagascar": 1,
            "Rwanda": 1,
            "Spain": 1,
            "Kenya": 9,
            "Nigeria": 5,
            "United Kingdom": 24,
            "Sweden": 8,
            "Switzerland": 7,
            "Tanzania": 5,
            "Italy": 1,
            "Togo": 1,
            "India": 4,
            "Senegal": 5,
            "Netherlands": 10,
            "Venezuela": 2,
            "Indonesia": 1,
            "United States": 1,
            "Tunisia": 3,
            "Philippines": 2,
            "Uganda": 3,
            "Mali": 1,
            "Malawi": 3,
            "Israel": 1,
            "Zimbabwe": 2,
            "Poland": 5
        },
        "Cape Verde": {
            "Finland": 11,
            "France": 2,
            "Ghana": 2,
            "India": 1,
            "Latvia": 3,
            "Russia": 3,
            "Sweden": 3,
            "South Africa": 1
        },
        "Botswana": {
            "Cameroon": 17,
            "Egypt": 21,
            "Ghana": 21,
            "Rwanda": 21,
            "Spain": 22,
            "Nigeria": 3,
            "South Africa": 12,
            "Sudan": 3,
            "Mali": 9,
            "Uganda": 1,
            "Finland": 1,
            "China": 11,
            "Poland": 11,
            "Germany": 1,
            "Greece": 1,
            "Ireland": 1,
            "Netherlands": 1,
            "Sweden": 1,
            "Switzerland": 1,
            "United Kingdom": 1,
            "United States": 1
        },
        "Rwanda": {
            "Uganda": 2,
            "Spain": 1,
            "Sweden": 2,
            "Tanzania": 1,
            "United Kingdom": 4,
            "South Africa": 1,
            "Singapore": 1
        },
        "Nigeria": {
            "Senegal": 2,
            "Turkey": 2,
            "South Africa": 6,
            "United Kingdom": 2,
            "Sweden": 1,
            "Switzerland": 2,
            "Uganda": 2,
            "United States": 2,
            "Sudan": 2,
            "Tanzania": 2,
            "Zambia": 1,
            "The Gambia": 1,
            "Romania": 1,
            "Serbia": 1
        },
        "South Korea": {
            "United Kingdom": 5,
            "United States": 2,
            "Spain": 5,
            "Sweden": 1,
            "Tunisia": 1,
            "Uruguay": 1,
            "South Korea": 3,
            "Taiwan": 1,
            "Switzerland": 3
        },
        "Nicaragua": {
            "Nicaragua": 1
        },
        "Armenia": {
            "Cyprus": 7,
            "Italy": 22,
            "Russia": 4,
            "Czech Republic": 7,
            "Poland": 6,
            "Hungary": 7,
            "Georgia": 4,
            "Kazakhstan": 3,
            "Uzbekistan": 3,
            "Belarus": 3,
            "Ukraine": 3,
            "Moldova": 4,
            "Azerbaijan": 1,
            "Bosnia and Herzegovina": 2,
            "Bulgaria": 2,
            "Montenegro": 1,
            "Former Yugoslav Republic of Macedonia": 1,
            "Romania": 1,
            "Serbia": 1,
            "Turkey": 1,
            "Denmark": 1,
            "Belgium": 1
        },
        "Greenland": {
            "Poland": 2,
            "Ukraine": 1,
            "Italy": 1,
            "Netherlands": 4,
            "Norway": 3,
            "United Kingdom": 1,
            "Iceland": 1,
            "Russia": 3
        },
        "Kosovo": {
            "United Kingdom": 1,
            "Netherlands": 2,
            "Turkey": 1,
            "Sweden": 2,
            "Tajikistan": 2
        },
        "Peru": {
            "United Kingdom": 3,
            "South Africa": 1,
            "United States": 1,
            "Spain": 5,
            "Poland": 1
        },
        "Cambodia": {
            "France": 12,
            "Spain": 5,
            "Portugal": 10,
            "Finland": 5,
            "Germany": 7,
            "United Kingdom": 9,
            "Cuba": 5,
            "French Polynesia": 5,
            "Thailand": 9,
            "Greece": 1,
            "China": 7,
            "Indonesia": 11,
            "Philippines": 23,
            "Vietnam": 11,
            "Cambodia": 6,
            "Denmark": 8,
            "India": 5,
            "Laos": 3,
            "Netherlands": 10,
            "Senegal": 3,
            "New Caledonia": 3,
            "Switzerland": 1
        },
        "Cuba": {
            "Finland": 6,
            "French Polynesia": 9,
            "Germany": 6,
            "United Kingdom": 1,
            "El Salvador": 9,
            "Indonesia": 6,
            "United States": 1,
            "Ecuador": 2,
            "Italy": 7,
            "France": 14,
            "Senegal": 1,
            "Switzerland": 1,
            "South Korea": 1
        },
        "Sri Lanka": {
            "Sweden": 1,
            "United Kingdom": 12,
            "Uganda": 1,
            "Sri Lanka": 3
        },
        "Thailand": {
            "United Kingdom": 8,
            "Thailand": 2,
            "Vietnam": 4
        },
        "Mozambique": {
            "South Africa": 3,
            "United Kingdom": 4,
            "Netherlands": 6,
            "Uganda": 4,
            "Nigeria": 1,
            "Tanzania": 3,
            "Zambia": 2,
            "Mozambique": 1,
            "Portugal": 2,
            "Switzerland": 1,
            "Spain": 2
        },
        "Kazakhstan": {
            "Netherlands": 2,
            "Uzbekistan": 3,
            "Spain": 2,
            "Moldova": 2,
            "United Kingdom": 6,
            "Slovakia": 1,
            "Kazakhstan": 3
        },
        "Moldova": {
            "Poland": 1,
            "Ukraine": 2,
            "Netherlands": 1,
            "United Kingdom": 1,
            "Montenegro": 1,
            "Romania": 2
        },
        "Namibia": {
            "Nigeria": 1,
            "Norway": 4,
            "United Kingdom": 4
        },
        "Nepal": {
            "Nigeria": 1,
            "South Africa": 2,
            "Uganda": 1,
            "Sudan": 1,
            "United States": 1,
            "Sweden": 1,
            "Netherlands": 1,
            "Pakistan": 2
        },
        "Hong Kong": {
            "Netherlands": 8,
            "United Kingdom": 10,
            "Spain": 7,
            "Ireland": 6,
            "United States": 6,
            "Poland": 1,
            "Sweden": 2
        },
        "Faeroe Islands": {
            "Spain": 5,
            "France": 20,
            "Greenland": 1,
            "Italy": 10,
            "Sweden": 2,
            "Finland": 8,
            "United Kingdom": 27,
            "Ireland": 1,
            "Netherlands": 1,
            "Vietnam": 8,
            "Germany": 8,
            "Greece": 1,
            "Hungary": 1,
            "Iceland": 3,
            "Norway": 2,
            "Russia": 1
        },
        "Madagascar": {
            "Norway": 3,
            "Netherlands": 1
        },
        "Haiti": {
            "United Kingdom": 2,
            "Switzerland": 3
        },
        "Sudan": {
            "Uganda": 1,
            "United States": 1,
            "United Kingdom": 1
        },
        "Togo": {
            "United Kingdom": 1
        },
        "Montenegro": {
            "Switzerland": 1,
            "Netherlands": 1,
            "Portugal": 1,
            "Romania": 1,
            "Serbia": 2,
            "United Kingdom": 2,
            "Spain": 1
        },
        "AN": {
            "Netherlands": 26,
            "Germany": 9,
            "Israel": 9,
            "Costa Rica": 9,
            "Jamaica": 9,
            "Mexico": 18,
            "Honduras": 9,
            "Australia": 9
        },
        "Jamaica": {
            "Mexico": 2,
            "Spain": 2
        },
        "Honduras": {
            "Jamaica": 1,
            "Mexico": 2
        },
        "Iran": {
            "United Kingdom": 2,
            "Italy": 2,
            "Morocco": 2
        },
        "Pakistan": {
            "United Kingdom": 2,
            "Pakistan": 2
        },
        "Bangladesh": {
            "India": 42,
            "United Kingdom": 53,
            "Germany": 35,
            "Finland": 5,
            "Spain": 5,
            "Pakistan": 5,
            "Belgium": 12,
            "Guatemala": 9,
            "Kenya": 6,
            "Senegal": 14,
            "France": 15,
            "Greece": 5,
            "Brazil": 16,
            "Mexico": 17,
            "Denmark": 42,
            "Sri Lanka": 11,
            "Netherlands": 29,
            "Switzerland": 19,
            "Bangladesh": 19,
            "Niger": 15,
            "Maldives": 6,
            "China": 15,
            "Thailand": 20,
            "Cambodia": 18,
            "Indonesia": 12,
            "Philippines": 36,
            "Vietnam": 9,
            "Mozambique": 3,
            "Malawi": 3,
            "Ethiopia": 6,
            "Malaysia": 9,
            "Italy": 17,
            "Norway": 9,
            "Israel": 14,
            "Ghana": 7,
            "Sweden": 1,
            "Nepal": 4,
            "Czech Republic": 2
        },
        "Suriname": {
            "Sweden": 1
        },
        "Guatemala": {
            "United Kingdom": 3,
            "Spain": 2,
            "Madagascar": 2,
            "Netherlands": 2,
            "India": 2,
            "Mexico": 2
        },
        "Gabon": {
            "Germany": 20,
            "Switzerland": 10,
            "United Kingdom": 9,
            "United States": 8,
            "Gabon": 7,
            "Tanzania": 1,
            "Ghana": 4,
            "Uganda": 4,
            "Kenya": 4,
            "Italy": 1
        },
        "Azerbaijan": {
            "Bosnia and Herzegovina": 2,
            "Bulgaria": 2,
            "Georgia": 1,
            "Hungary": 1,
            "Moldova": 1,
            "Montenegro": 1,
            "Former Yugoslav Republic of Macedonia": 1,
            "Romania": 1,
            "Serbia": 1,
            "Turkey": 1
        },
        "Maldives": {
            "Switzerland": 2,
            "United Kingdom": 3
        },
        "Niger": {
            "Tanzania": 3,
            "Niger": 4,
            "United States": 5,
            "Senegal": 1
        },
        "Palestine": {
            "Syria": 4,
            "Tunisia": 6,
            "United Kingdom": 3
        },
        "Monaco": {
            "Switzerland": 1,
            "Netherlands": 1
        },
        "Democratic Republic of the Congo": {
            "France": 1,
            "Indonesia": 4,
            "Mali": 4,
            "Switzerland": 5,
            "India": 4,
            "Nepal": 4,
            "Sudan": 4,
            "United States": 4,
            "United Kingdom": 1
        },
        "British Virgin Islands": {
            "Cyprus": 4,
            "Netherlands": 11,
            "Czech Republic": 10,
            "Greece": 2,
            "United Kingdom": 9,
            "Namibia": 9,
            "Denmark": 9,
            "Italy": 2
        },
        "": {
            "Belgium": 27,
            "Italy": 120,
            "United Kingdom": 60,
            "Netherlands": 30,
            "Greece": 30,
            "Denmark": 2
        },
        "Liechtenstein": {
            "Switzerland": 1,
            "Netherlands": 1,
            "United Kingdom": 1,
            "Slovenia": 1
        },
        "MK": {
            "United Kingdom": 12,
            "Netherlands": 2,
            "Poland": 8,
            "MK": 1
        },
        "Guyana": {
            "Mexico": 1,
            "Netherlands": 1,
            "Spain": 1
        },
        "Laos": {
            "Netherlands": 3,
            "Thailand": 1,
            "United Kingdom": 1,
            "Vietnam": 1
        },
        "Central African Republic": {
            "Ethiopia": 1,
            "Mozambique": 1,
            "Zambia": 1,
            "France": 1,
            "Switzerland": 1,
            "Sweden": 1
        },
        "Mauritania": {
            "Tunisia": 1
        },
        "Kyrgyzstan": {
            "Netherlands": 1,
            "Vietnam": 4,
            "Uganda": 2
        },
        "French Polynesia": {
            "Switzerland": 1,
            "Spain": 1,
            "Germany": 2
        },
        "New Caledonia": {
            "Senegal": 1
        }
    },
    "activity_types": {
        "Higher or Secondary Education Establishments": {
            "Research Organisations": 96695,
            "Higher or Secondary Education Establishments": 145546,
            "Private for-profit entities (excluding Higher or Secondary Education Establishments)": 119600,
            "Other": 14014,
            "Public bodies (excluding Research Organisations and Secondary or Higher Education Establishments)": 16208
        },
        "Private for-profit entities (excluding Higher or Secondary Education Establishments)": {
            "Private for-profit entities (excluding Higher or Secondary Education Establishments)": 26424,
            "Research Organisations": 12733,
            "Public bodies (excluding Research Organisations and Secondary or Higher Education Establishments)": 2371
        },
        "Research Organisations": {
            "Research Organisations": 7011
        },
        "Other": {
            "Research Organisations": 3141,
            "Private for-profit entities (excluding Higher or Secondary Education Establishments)": 6321,
            "Other": 2402,
            "Public bodies (excluding Research Organisations and Secondary or Higher Education Establishments)": 1949
        },
        "Public bodies (excluding Research Organisations and Secondary or Higher Education Establishments)": {
            "Research Organisations": 4067,
            "Public bodies (excluding Research Organisations and Secondary or Higher Education Establishments)": 4179
        }
    },
    "icd10categories": {
        "4:Endocrine, nutritional and metabolic diseases": {
            "6:Diseases of the nervous system": 19,
            "9:Diseases of the circulatory system": 16,
            "5:Mental and behavioural disorders": 3,
            "7:Diseases of the eye and adnexa": 1
        },
        "5:Mental and behavioural disorders": {
            "6:Diseases of the nervous system": 22,
            "7:Diseases of the eye and adnexa": 1,
            "9:Diseases of the circulatory system": 7,
            "8:Diseases of the ear and mastoid process": 1
        },
        "3:Diseases of the blood and blood-forming organs and certain disorders involving the immune mechanism": {
            "5:Mental and behavioural disorders": 1,
            "6:Diseases of the nervous system": 1,
            "4:Endocrine, nutritional and metabolic diseases": 2,
            "9:Diseases of the circulatory system": 3
        },
        "2:Neoplasms": {
            "4:Endocrine, nutritional and metabolic diseases": 16,
            "9:Diseases of the circulatory system": 19,
            "3:Diseases of the blood and blood-forming organs and certain disorders involving the immune mechanism": 11,
            "5:Mental and behavioural disorders": 6,
            "6:Diseases of the nervous system": 16
        },
        "10:Diseases of the respiratory system": {
            "4:Endocrine, nutritional and metabolic diseases": 1,
            "1:Certain infectious and parasitic diseases": 9,
            "12:Diseases of the skin and subcutaneous tissue": 4,
            "2:Neoplasms": 6,
            "19:Injury, poisoning and certain other consequences of external causes": 2,
            "17:Congenital malformations, deformations and chromosomal abnormalities": 1,
            "9:Diseases of the circulatory system": 4,
            "7:Diseases of the eye and adnexa": 1,
            "15:Pregnancy, childbirth and the puerperium": 1,
            "5:Mental and behavioural disorders": 1,
            "3:Diseases of the blood and blood-forming organs and certain disorders involving the immune mechanism": 1,
            "6:Diseases of the nervous system": 1
        },
        "11:Diseases of the digestive system": {
            "2:Neoplasms": 11,
            "5:Mental and behavioural disorders": 1,
            "1:Certain infectious and parasitic diseases": 6,
            "9:Diseases of the circulatory system": 10,
            "19:Injury, poisoning and certain other consequences of external causes": 2,
            "3:Diseases of the blood and blood-forming organs and certain disorders involving the immune mechanism": 2,
            "18:Symptoms, signs and abnormal clinical and laboratory findings, not elsewhere classified": 1,
            "14:Diseases of the genitourinary system": 3,
            "4:Endocrine, nutritional and metabolic diseases": 4,
            "13:Diseases of the musculoskeletal system and connective tissue": 3,
            "7:Diseases of the eye and adnexa": 1,
            "17:Congenital malformations, deformations and chromosomal abnormalities": 1
        },
        "1:Certain infectious and parasitic diseases": {
            "2:Neoplasms": 20,
            "5:Mental and behavioural disorders": 1,
            "9:Diseases of the circulatory system": 4,
            "6:Diseases of the nervous system": 6,
            "4:Endocrine, nutritional and metabolic diseases": 2,
            "3:Diseases of the blood and blood-forming organs and certain disorders involving the immune mechanism": 1
        },
        "17:Congenital malformations, deformations and chromosomal abnormalities": {
            "7:Diseases of the eye and adnexa": 1,
            "2:Neoplasms": 8,
            "5:Mental and behavioural disorders": 5,
            "1:Certain infectious and parasitic diseases": 1,
            "19:Injury, poisoning and certain other consequences of external causes": 2,
            "3:Diseases of the blood and blood-forming organs and certain disorders involving the immune mechanism": 1,
            "4:Endocrine, nutritional and metabolic diseases": 1,
            "9:Diseases of the circulatory system": 3
        },
        "6:Diseases of the nervous system": {
            "9:Diseases of the circulatory system": 18,
            "7:Diseases of the eye and adnexa": 1
        },
        "18:Symptoms, signs and abnormal clinical and laboratory findings, not elsewhere classified": {
            "5:Mental and behavioural disorders": 5,
            "7:Diseases of the eye and adnexa": 1,
            "2:Neoplasms": 2,
            "6:Diseases of the nervous system": 6,
            "3:Diseases of the blood and blood-forming organs and certain disorders involving the immune mechanism": 1
        },
        "7:Diseases of the eye and adnexa": {
            "9:Diseases of the circulatory system": 4
        },
        "12:Diseases of the skin and subcutaneous tissue": {
            "19:Injury, poisoning and certain other consequences of external causes": 3,
            "4:Endocrine, nutritional and metabolic diseases": 1,
            "13:Diseases of the musculoskeletal system and connective tissue": 1
        },
        "14:Diseases of the genitourinary system": {
            "9:Diseases of the circulatory system": 6,
            "2:Neoplasms": 3,
            "18:Symptoms, signs and abnormal clinical and laboratory findings, not elsewhere classified": 1,
            "3:Diseases of the blood and blood-forming organs and certain disorders involving the immune mechanism": 1,
            "5:Mental and behavioural disorders": 1,
            "17:Congenital malformations, deformations and chromosomal abnormalities": 1,
            "19:Injury, poisoning and certain other consequences of external causes": 1,
            "1:Certain infectious and parasitic diseases": 1,
            "4:Endocrine, nutritional and metabolic diseases": 1
        },
        "13:Diseases of the musculoskeletal system and connective tissue": {
            "2:Neoplasms": 3,
            "4:Endocrine, nutritional and metabolic diseases": 1,
            "9:Diseases of the circulatory system": 3,
            "5:Mental and behavioural disorders": 2,
            "8:Diseases of the ear and mastoid process": 1,
            "17:Congenital malformations, deformations and chromosomal abnormalities": 2,
            "6:Diseases of the nervous system": 3
        },
        "15:Pregnancy, childbirth and the puerperium": {
            "2:Neoplasms": 1,
            "1:Certain infectious and parasitic diseases": 1
        },
        "19:Injury, poisoning and certain other consequences of external causes": {
            "4:Endocrine, nutritional and metabolic diseases": 1,
            "2:Neoplasms": 2
        },
        "16:Certain conditions originating in the perinatal period": {
            "17:Congenital malformations, deformations and chromosomal abnormalities": 1
        }
    }
}