{
    "D4I_Dataset": {
        "2014": {
            "eu_funding": 3059732592.665777,
            "total_funding": 3962780768.2987523
        },
        "2015": {
            "eu_funding": 3263990867.8648763,
            "total_funding": 4134349696.2683735
        },
        "2016": {
            "eu_funding": 3095276668.7522955,
            "total_funding": 3850741399.1346664
        },
        "2017": {
            "eu_funding": 2736346668.854815,
            "total_funding": 3368217828.0634274
        },
        "2008": {
            "eu_funding": 492426627.60509545,
            "total_funding": 662637599.280761
        },
        "2009": {
            "eu_funding": 962871696.2671415,
            "total_funding": 1301158592.4505932
        },
        "2010": {
            "eu_funding": 1476082121.009179,
            "total_funding": 1987461982.3285143
        },
        "2011": {
            "eu_funding": 2048334370.9428961,
            "total_funding": 2723868409.6060166
        },
        "2012": {
            "eu_funding": 2577912238.425488,
            "total_funding": 3399447069.017499
        },
        "2013": {
            "eu_funding": 3031882652.7629437,
            "total_funding": 3915695601.8697724
        },
        "2018": {
            "eu_funding": 2131818177.5206406,
            "total_funding": 2581257299.1347976
        },
        "2019": {
            "eu_funding": 1391013402.3696353,
            "total_funding": 1645351352.4222496
        },
        "2007": {
            "eu_funding": 7330138.995952381,
            "total_funding": 18029469.614285715
        },
        "2020": {
            "eu_funding": 817333891.3104048,
            "total_funding": 948469497.2145923
        },
        "2021": {
            "eu_funding": 367679871.279119,
            "total_funding": 439007596.5568297
        },
        "2022": {
            "eu_funding": 108310011.42419052,
            "total_funding": 122983979.85282141
        },
        "2023": {
            "eu_funding": 8243410.160714285,
            "total_funding": 9900008.596011903
        },
        "2024": {
            "eu_funding": 3429183.125,
            "total_funding": 3436948.7512499997
        },
        "2025": {
            "eu_funding": 1554607.34375,
            "total_funding": 1562372.96875
        }
    }
}