﻿{
    "Sheet1": [
        {
            "Topic": "Infectious Diseases",
            "Share": "0.0720",
            "Trend": "0.0300"
        },
        {
            "Topic": "Non-Communicable Diseases",
            "Share": "0.1860",
            "Trend": "0.0500"
        },
        {
            "Topic": "Health systems, public health & epidemiology",
            "Share": "0.1450",
            "Trend": "0.0070"
        },
        {
            "Topic": "Diagnostics, treatment development, surgery",
            "Share": "0.0640",
            "Trend": "-0.0120"
        },
        {
            "Topic": "Molecular cell biology",
            "Share": "0.2610",
            "Trend": "0.0265"
        },
        {
            "Topic": "Methods, models, technologies, databases",
            "Share": "0.1150",
            "Trend": "-0.0300"
        },
        {
            "Topic": "Physiology",
            "Share": "0.0320",
            "Trend": "0.0100"
        },
        {
            "Topic": "Cognition and behaviour",
            "Share": "0.0460",
            "Trend": "0.0004"
        },
        {
            "Topic": "Other",
            "Share": "0.0790",
            "Trend": "0.0400"
        }
    ]
}